{
  "DBSOURCE": "/var/db.sqlite",
  "HOST": "0.0.0.0",
  "PORT": 8080,
  "LOG_FILE": "/var/server-monitoring/server-monitoring.log",
  "MAIN_MESSAGE": {
    "error": false,
    "message": "ok",
    "data": [
      {
        "info": {
          "name": "Ubuntu Vagrant",
          "ip": "10.59.0.65",
          "os": "Ubuntu"
        },
        "values": []
      }
    ]
  }
}